// Jest Snapshot v1, https://goo.gl/fbAQLP

exports[`Link matches the snapshot 1`] = `
<NavLink
  activeStyle={
    Object {
      "backgroundColor": "rgba(28, 56, 150, 0.2)",
    }
  }
  className="NavLink"
>
  <div
    className="NavLink-content"
  >
    <div
      className="NavLink-title"
    >
      NAHUI
    </div>
  </div>
</NavLink>
`;
