// Jest Snapshot v1, https://goo.gl/fbAQLP

exports[`Dropdown matches the snapshot 1`] = `
<Dropdown
  list={
    Array [
      Object {
        "color": "fff",
        "title": "title",
      },
    ]
  }
  onSelect={[Function]}
>
  <div
    style={
      Object {
        "width": "250px",
      }
    }
  >
    <button
      className="List-header__dropdown"
      onClick={[Function]}
    >
      Filter by labels
      <FontAwesomeIcon
        border={false}
        className="List-header__dropdown__icon"
        fixedWidth={false}
        flip={null}
        icon={
          Object {
            "icon": Array [
              320,
              512,
              Array [],
              "f107",
              "M143 352.3L7 216.3c-9.4-9.4-9.4-24.6 0-33.9l22.6-22.6c9.4-9.4 24.6-9.4 33.9 0l96.4 96.4 96.4-96.4c9.4-9.4 24.6-9.4 33.9 0l22.6 22.6c9.4 9.4 9.4 24.6 0 33.9l-136 136c-9.2 9.4-24.4 9.4-33.8 0z",
            ],
            "iconName": "angle-down",
            "prefix": "fas",
          }
        }
        inverse={false}
        listItem={false}
        mask={null}
        pull={null}
        pulse={false}
        rotation={null}
        size={null}
        spin={false}
        swapOpacity={false}
        symbol={false}
        title=""
        transform={null}
      >
        <svg
          aria-hidden="true"
          className="svg-inline--fa fa-angle-down fa-w-10 List-header__dropdown__icon"
          data-icon="angle-down"
          data-prefix="fas"
          focusable="false"
          role="img"
          style={Object {}}
          viewBox="0 0 320 512"
          xmlns="http://www.w3.org/2000/svg"
        >
          <path
            d="M143 352.3L7 216.3c-9.4-9.4-9.4-24.6 0-33.9l22.6-22.6c9.4-9.4 24.6-9.4 33.9 0l96.4 96.4 96.4-96.4c9.4-9.4 24.6-9.4 33.9 0l22.6 22.6c9.4 9.4 9.4 24.6 0 33.9l-136 136c-9.2 9.4-24.4 9.4-33.8 0z"
            fill="currentColor"
            style={Object {}}
          />
        </svg>
      </FontAwesomeIcon>
    </button>
  </div>
</Dropdown>
`;
