// Jest Snapshot v1, https://goo.gl/fbAQLP

exports[`List when todos and labels are provided matches the snapshot 1`] = `
<div
  className="List"
>
  <div
    className="List-header"
  >
    <input
      onChange={[Function]}
      placeholder="Title search"
      type="text"
    />
    <Dropdown
      list={
        Array [
          Object {
            "color": "D50101",
            "title": "Важное",
          },
          Object {
            "color": "F4511E",
            "title": "Дом",
          },
        ]
      }
      onSelect={[Function]}
    />
    <NavLink
      className="primary-button"
      to="/home/list/new"
    >
      Create new TODO
    </NavLink>
  </div>
  <Table
    items={
      Array [
        Object {
          "title": "title",
        },
      ]
    }
  />
</div>
`;
